cod-pipelinecpu/wave.vcd
$date
	Wed Jun 29 18:46:01 2022
$end
$version
	Icarus Verilog
$end
$timescale
	1ps
$end
$scope module Debug $end
$var wire 1 ! Mwk $end
$var wire 32 " PC [31:0] $end
$var wire 1 # clk $end
$upscope $end
$scope module reg5 $end
$var wire 1 $ clk $end
$var wire 5 % datain [4:0] $end
$var reg 5 & dataout [4:0] $end
$upscope $end
$scope module xgriscv_tb $end
$var reg 1 ' clk $end
$var reg 1 ( rstn $end
$var integer 32 ) counter [31:0] $end
$scope module top $end
$var wire 1 * CPU_MIO $end
$var wire 1 + MIO_ready $end
$var wire 1 ( RSTN $end
$var wire 1 ' clk_100mhz $end
$var wire 1 , counter0_out $end
$var wire 1 - mem_w $end
$var wire 32 . inst [31:0] $end
$var wire 32 / douta [31:0] $end
$var wire 4 0 WEA [3:0] $end
$var wire 32 1 PC [31:0] $end
$var wire 32 2 Data_out [31:0] $end
$var wire 32 3 Addr_out [31:0] $end
$scope module U1 $end
$var wire 32 4 Addr_out [31:0] $end
$var wire 1 * CPU_MIO $end
$var wire 32 5 Data_out [31:0] $end
$var wire 1 , INT $end
$var wire 1 + MIO_ready $end
$var wire 1 6 One $end
$var wire 1 ' clk $end
$var wire 1 ( reset $end
$var wire 4 7 wea_1 [3:0] $end
$var wire 4 8 wea [3:0] $end
$var wire 5 9 rs2_4 [4:0] $end
$var wire 5 : rs2_3 [4:0] $end
$var wire 5 ; rs2_2 [4:0] $end
$var wire 5 < rs2 [4:0] $end
$var wire 5 = rs1_4 [4:0] $end
$var wire 5 > rs1_3 [4:0] $end
$var wire 5 ? rs1_2 [4:0] $end
$var wire 5 @ rs1 [4:0] $end
$var wire 5 A rd_4 [4:0] $end
$var wire 5 B rd_3 [4:0] $end
$var wire 5 C rd_2 [4:0] $end
$var wire 5 D rd [4:0] $end
$var wire 7 E opcode_2 [6:0] $end
$var wire 7 F opcode [6:0] $end
$var wire 1 - mem_w $end
$var wire 32 G inst_in [31:0] $end
$var wire 1 H immres_4 $end
$var wire 1 I immres_3 $end
$var wire 1 J immres_2 $end
$var wire 1 K immres $end
$var wire 32 L imm [31:0] $end
$var wire 7 M funct7 [6:0] $end
$var wire 3 N funct3_2 [2:0] $end
$var wire 3 O funct3 [2:0] $end
$var wire 32 P extend_4 [31:0] $end
$var wire 32 Q extend_3 [31:0] $end
$var wire 32 R extend_2 [31:0] $end
$var wire 32 S extend [31:0] $end
$var wire 32 T curPC_4 [31:0] $end
$var wire 32 U curPC_3 [31:0] $end
$var wire 32 V curPC_2 [31:0] $end
$var wire 32 W curPC_1 [31:0] $end
$var wire 32 X curPC [31:0] $end
$var wire 2 Y cmp_4 [1:0] $end
$var wire 2 Z cmp_3 [1:0] $end
$var wire 2 [ cmp [1:0] $end
$var wire 1 \ clear $end
$var wire 1 ] Sign_3 $end
$var wire 1 ^ Sign_2 $end
$var wire 1 _ Sign $end
$var wire 1 ` RegWr_4 $end
$var wire 1 a RegWr_3 $end
$var wire 1 b RegWr $end
$var wire 2 c RegDst_4 [1:0] $end
$var wire 2 d RegDst_3 [1:0] $end
$var wire 2 e RegDst_2 [1:0] $end
$var wire 2 f RegDst [1:0] $end
$var wire 32 g ReadData2_3 [31:0] $end
$var wire 32 h ReadData2_2 [31:0] $end
$var wire 32 i ReadData2 [31:0] $end
$var wire 32 j ReadData1_2 [31:0] $end
$var wire 32 k ReadData1 [31:0] $end
$var wire 32 l RD2 [31:0] $end
$var wire 32 m RD1 [31:0] $end
$var wire 1 n PCdelay $end
$var wire 32 o PC_out [31:0] $end
$var wire 1 p PCSrc $end
$var wire 1 q Mwk_4 $end
$var wire 1 r Mwk_3 $end
$var wire 1 s Mwk_2 $end
$var wire 1 t Mwk_1 $end
$var wire 1 u Mwk_0 $end
$var wire 3 v ExtSel_2 [2:0] $end
$var wire 3 w ExtSel [2:0] $end
$var wire 2 x Digit_4 [1:0] $end
$var wire 2 y Digit_3 [1:0] $end
$var wire 2 z Digit_2 [1:0] $end
$var wire 2 { Digit [1:0] $end
$var wire 32 | Datain [31:0] $end
$var wire 1 } DataWr_3 $end
$var wire 1 ~ DataWr_2 $end
$var wire 1 !" DataWr $end
$var wire 32 "" DataOut_1 [31:0] $end
$var wire 32 #" DataOut [31:0] $end
$var wire 32 $" DB [31:0] $end
$var wire 1 %" AluSrc2_2 $end
$var wire 1 &" AluSrc2 $end
$var wire 1 '" AluSrc1_2 $end
$var wire 1 (" AluSrc1 $end
$var wire 32 )" AluOut_4 [31:0] $end
$var wire 32 *" AluOut_3 [31:0] $end
$var wire 32 +" AluOut [31:0] $end
$var wire 3 ," AluOp_2 [2:0] $end
$var wire 3 -" AluOp [2:0] $end
$scope module U_dmem $end
$var wire 1 ' clk $end
$var wire 1 ] Sign $end
$var wire 32 ." PC [31:0] $end
$var wire 2 /" Digit [1:0] $end
$var wire 32 0" Datain [31:0] $end
$var reg 32 1" DataOut [31:0] $end
$upscope $end
$scope module U_imem $end
$var wire 1 ' clk $end
$var wire 32 2" instr [31:0] $end
$var wire 32 3" curPC [31:0] $end
$var reg 3 4" funct3 [2:0] $end
$var reg 7 5" funct7 [6:0] $end
$var reg 32 6" imm [31:0] $end
$var reg 7 7" opcode [6:0] $end
$var reg 5 8" rd [4:0] $end
$var reg 5 9" rs1 [4:0] $end
$var reg 5 :" rs2 [4:0] $end
$upscope $end
$scope module alu1 $end
$var wire 1 ' clk $end
$var wire 7 ;" opcode [6:0] $end
$var wire 3 <" f3 [2:0] $end
$var wire 32 =" extend [31:0] $end
$var wire 1 ^ Sign $end
$var wire 32 >" ReadData2 [31:0] $end
$var wire 32 ?" ReadData1 [31:0] $end
$var wire 32 @" PC [31:0] $end
$var wire 1 s Mwk $end
$var wire 3 A" AluOp [2:0] $end
$var wire 1 %" ALUSrc2 $end
$var wire 1 '" ALUSrc1 $end
$var reg 32 B" A [31:0] $end
$var reg 32 C" AluOut [31:0] $end
$var reg 32 D" B [31:0] $end
$var reg 32 E" C [31:0] $end
$var reg 1 p PCSrc $end
$var reg 1 F" PCSrctmp $end
$var reg 1 b RegWr $end
$var reg 1 \ clear $end
$var reg 2 G" cmp [1:0] $end
$upscope $end
$scope module ar_1 $end
$var wire 1 H" MwkIn $end
$var wire 1 ' clk $end
$var wire 5 I" rdIn [4:0] $end
$var wire 5 J" rs1In [4:0] $end
$var wire 5 K" rs2In [4:0] $end
$var reg 1 L" MwkOut $end
$var reg 5 M" rdOut [4:0] $end
$var reg 5 N" rs1Out [4:0] $end
$var reg 5 O" rs2Out [4:0] $end
$upscope $end
$scope module ar_2 $end
$var wire 1 ' clk $end
$var wire 5 P" rdIn [4:0] $end
$var wire 5 Q" rs1In [4:0] $end
$var wire 5 R" rs2In [4:0] $end
$var wire 1 s MwkIn $end
$var reg 1 r MwkOut $end
$var reg 5 S" rdOut [4:0] $end
$var reg 5 T" rs1Out [4:0] $end
$var reg 5 U" rs2Out [4:0] $end
$upscope $end
$scope module ar_3 $end
$var wire 1 r MwkIn $end
$var wire 1 ' clk $end
$var wire 5 V" rdIn [4:0] $end
$var wire 5 W" rs1In [4:0] $end
$var wire 5 X" rs2In [4:0] $end
$var reg 1 q MwkOut $end
$var reg 5 Y" rdOut [4:0] $end
$var reg 5 Z" rs1Out [4:0] $end
$var reg 5 [" rs2Out [4:0] $end
$upscope $end
$scope module bb $end
$var wire 1 ' clk $end
$var wire 7 \" curop [6:0] $end
$var wire 5 ]" prerd [4:0] $end
$var wire 5 ^" rs1 [4:0] $end
$var wire 5 _" rs2 [4:0] $end
$var wire 7 `" preop [6:0] $end
$var wire 32 a" PC [31:0] $end
$var wire 1 u Mwkin $end
$var reg 1 t Mwk $end
$var reg 1 b" Mwktmp $end
$var reg 1 n PCdelay $end
$upscope $end
$scope module control $end
$var wire 3 c" f3 [2:0] $end
$var wire 7 d" f7 [6:0] $end
$var wire 7 e" opcode [6:0] $end
$var wire 32 f" PC [31:0] $end
$var reg 1 (" Alu1Src $end
$var reg 1 &" Alu2Src $end
$var reg 3 g" AluOp [2:0] $end
$var reg 1 !" DataWr $end
$var reg 2 h" Digit [1:0] $end
$var reg 3 i" ExtSel [2:0] $end
$var reg 2 j" RegDst [1:0] $end
$var reg 1 _ Sign $end
$var reg 1 K immres $end
$upscope $end
$scope module cr_1 $end
$var wire 1 (" Alu1SrcIn $end
$var wire 1 &" Alu2SrcIn $end
$var wire 3 k" AluOpIn [2:0] $end
$var wire 1 !" DataWrIn $end
$var wire 2 l" DigitIn [1:0] $end
$var wire 3 m" ExtSelIn [2:0] $end
$var wire 1 n" MwkIn $end
$var wire 2 o" RegDstIn [1:0] $end
$var wire 1 _ SignIn $end
$var wire 1 ' clk $end
$var wire 1 K immresIn $end
$var wire 32 p" PC [31:0] $end
$var reg 1 '" Alu1SrcOut $end
$var reg 1 %" Alu2SrcOut $end
$var reg 3 q" AluOpOut [2:0] $end
$var reg 1 ~ DataWrOut $end
$var reg 2 r" DigitOut [1:0] $end
$var reg 3 s" ExtSelOut [2:0] $end
$var reg 2 t" RegDstOut [1:0] $end
$var reg 1 ^ SignOut $end
$var reg 1 J immresOut $end
$var reg 4 u" wea [3:0] $end
$var reg 4 v" weatmp [3:0] $end
$upscope $end
$scope module ext $end
$var wire 3 w" ExtSel [2:0] $end
$var wire 1 _ Sign $end
$var wire 32 x" imm [31:0] $end
$var reg 32 y" extend [31:0] $end
$upscope $end
$scope module fw $end
$var wire 1 ' clk $end
$var wire 32 z" ppreDataOut [31:0] $end
$var wire 1 q ppreMwk $end
$var wire 5 {" pprerd [4:0] $end
$var wire 1 r preMwk $end
$var wire 5 |" prerd [4:0] $end
$var wire 5 }" rs1 [4:0] $end
$var wire 5 ~" rs2 [4:0] $end
$var wire 2 !# precmp [1:0] $end
$var wire 1 a preRegWr $end
$var wire 2 "# preRegDst [1:0] $end
$var wire 32 ## preAluOut [31:0] $end
$var wire 2 $# pprecmp [1:0] $end
$var wire 1 ` ppreRegWr $end
$var wire 2 %# ppreRegDst [1:0] $end
$var wire 32 &# ppreAluOut [31:0] $end
$var wire 32 '# ReadData2 [31:0] $end
$var wire 32 (# ReadData1 [31:0] $end
$var wire 32 )# PC [31:0] $end
$var reg 32 *# RD1 [31:0] $end
$var reg 32 +# RD2 [31:0] $end
$upscope $end
$scope module mr_1 $end
$var wire 1 ~ DataWrIn $end
$var wire 2 ,# DigitIn [1:0] $end
$var wire 2 -# RegDstIn [1:0] $end
$var wire 1 b RegWrIn $end
$var wire 1 ^ SignIn $end
$var wire 1 ' clk $end
$var wire 2 .# cmpIn [1:0] $end
$var wire 1 J immresIn $end
$var wire 4 /# weain [3:0] $end
$var wire 32 0# PC [31:0] $end
$var reg 1 } DataWrOut $end
$var reg 2 1# DigitOut [1:0] $end
$var reg 2 2# RegDstOut [1:0] $end
$var reg 1 a RegWrOut $end
$var reg 1 ] SignOut $end
$var reg 2 3# cmpOut [1:0] $end
$var reg 1 I immresOut $end
$var reg 1 - mem_w $end
$var reg 4 4# weaout [3:0] $end
$upscope $end
$scope module pc1 $end
$var wire 1 p PCSrc $end
$var wire 1 n PCdelay $end
$var wire 1 ' clk $end
$var wire 1 ( reset $end
$var wire 32 5# prePC [31:0] $end
$var wire 32 6# AluOut [31:0] $end
$var reg 32 7# PC_out_ [31:0] $end
$var reg 32 8# curPC [31:0] $end
$var reg 32 9# tmp [31:0] $end
$upscope $end
$scope module r32_0 $end
$var wire 1 ' clk $end
$var wire 32 :# datain [31:0] $end
$var reg 32 ;# dataout [31:0] $end
$upscope $end
$scope module r32_1 $end
$var wire 1 ' clk $end
$var wire 32 <# datain [31:0] $end
$var reg 32 =# dataout [31:0] $end
$upscope $end
$scope module r32_2 $end
$var wire 1 ' clk $end
$var wire 32 ># datain [31:0] $end
$var reg 32 ?# dataout [31:0] $end
$upscope $end
$scope module r32_3 $end
$var wire 1 ' clk $end
$var wire 32 @# datain [31:0] $end
$var reg 32 A# dataout [31:0] $end
$upscope $end
$scope module r32_4 $end
$var wire 1 ' clk $end
$var wire 32 B# datain [31:0] $end
$var reg 32 C# dataout [31:0] $end
$upscope $end
$scope module r32_5 $end
$var wire 1 ' clk $end
$var wire 32 D# datain [31:0] $end
$var reg 32 E# dataout [31:0] $end
$upscope $end
$scope module r32_6 $end
$var wire 1 ' clk $end
$var wire 32 F# datain [31:0] $end
$var reg 32 G# dataout [31:0] $end
$upscope $end
$scope module r32_7 $end
$var wire 1 ' clk $end
$var wire 32 H# datain [31:0] $end
$var reg 32 I# dataout [31:0] $end
$upscope $end
$scope module r32_8 $end
$var wire 1 ' clk $end
$var wire 32 J# datain [31:0] $end
$var reg 32 K# dataout [31:0] $end
$upscope $end
$scope module r32_9 $end
$var wire 1 ' clk $end
$var wire 32 L# datain [31:0] $end
$var reg 32 M# dataout [31:0] $end
$upscope $end
$scope module r3_1 $end
$var wire 1 ' clk $end
$var wire 3 N# datain [2:0] $end
$var reg 3 O# dataout [2:0] $end
$upscope $end
$scope module r7_1 $end
$var wire 1 ' clk $end
$var wire 7 P# datain [6:0] $end
$var reg 7 Q# dataout [6:0] $end
$upscope $end
$scope module regfile $end
$var wire 32 R# Datain [31:0] $end
$var wire 1 S# Mwk $end
$var wire 32 T# ReadData1 [31:0] $end
$var wire 32 U# ReadData2 [31:0] $end
$var wire 5 V# WriteReg [4:0] $end
$var wire 1 ' clk $end
$var wire 5 W# rs1 [4:0] $end
$var wire 5 X# rs2 [4:0] $end
$var wire 1 ( rst $end
$var wire 1 H immres $end
$var wire 32 Y# extend [31:0] $end
$var wire 2 Z# cmp [1:0] $end
$var wire 1 ` RegWr $end
$var wire 2 [# RegDst [1:0] $end
$var wire 32 \# PC [31:0] $end
$var wire 32 ]# AluOut [31:0] $end
$var reg 32 ^# DB [31:0] $end
$var integer 32 _# i [31:0] $end
$upscope $end
$scope module tr0 $end
$var wire 32 `# PC [31:0] $end
$var wire 1 a# PCdelay $end
$var wire 1 \ clear $end
$var wire 1 ' clk $end
$var wire 1 6 mwkin $end
$var reg 1 b# Mwktmp $end
$var reg 1 u mwkout $end
$upscope $end
$scope module tr1 $end
$var wire 32 c# PC [31:0] $end
$var wire 1 d# PCdelay $end
$var wire 1 \ clear $end
$var wire 1 ' clk $end
$var wire 1 e# mwkin $end
$var reg 1 f# Mwktmp $end
$var reg 1 s mwkout $end
$upscope $end
$scope module wr_1 $end
$var wire 32 g# AluOutputIn [31:0] $end
$var wire 2 h# DigitIn [1:0] $end
$var wire 32 i# PCIn [31:0] $end
$var wire 2 j# RegDstIn [1:0] $end
$var wire 1 a RegWrIn $end
$var wire 1 ' clk $end
$var wire 2 k# cmpIn [1:0] $end
$var wire 32 l# extendIn [31:0] $end
$var wire 1 I immresIn $end
$var reg 32 m# AluOutputOut [31:0] $end
$var reg 2 n# DigitOut [1:0] $end
$var reg 32 o# PCOut [31:0] $end
$var reg 2 p# RegDstOut [1:0] $end
$var reg 1 ` RegWrOut $end
$var reg 2 q# cmpOut [1:0] $end
$var reg 32 r# extendOut [31:0] $end
$var reg 1 H immresOut $end
$upscope $end
$upscope $end
$scope module U2 $end
$var wire 10 s# a [9:0] $end
$var reg 32 t# spo [31:0] $end
$upscope $end
$scope module U3 $end
$var wire 32 u# PC [31:0] $end
$var wire 32 v# addra [31:0] $end
$var wire 1 w# clka $end
$var wire 32 x# dina [31:0] $end
$var wire 4 y# wea [3:0] $end
$var reg 32 z# douta [31:0] $end
$upscope $end
$upscope $end
$upscope $end
$enddefinitions $end
#0
$dumpvars
bx z#
bx y#
b0 x#
0w#
b0 v#
b0 u#
b111111111100000000000010010011 t#
b0 s#
bx r#
bx q#
bx p#
bx o#
bx n#
bx m#
b0 l#
bx k#
bx j#
b0 i#
bx h#
b0 g#
xf#
xe#
zd#
b0 c#
xb#
za#
b0 `#
b100000 _#
bx ^#
bx ]#
bx \#
bx [#
bx Z#
bx Y#
bx X#
bx W#
b0 V#
bx U#
bx T#
zS#
b0 R#
b0 Q#
bx P#
b0 O#
bx N#
b0 M#
bx L#
b0 K#
b0 J#
b0 I#
b0 H#
b0 G#
b0 F#
b0 E#
bx D#
b0 C#
b0 B#
b0 A#
bx @#
b0 ?#
bx >#
b0 =#
bx <#
b0 ;#
b0 :#
b0 9#
b0 8#
b0 7#
b0 6#
b0 5#
bx 4#
bx 3#
bx 2#
bx 1#
b0 0#
bx /#
b0 .#
bx -#
bx ,#
b0 +#
b0 *#
b0 )#
b0 (#
b0 '#
bx &#
bx %#
bx $#
b0 ##
bx "#
bx !#
b0 ~"
b0 }"
b0 |"
b0 {"
bx z"
bx y"
bx x"
b0 w"
bx v"
bx u"
bx t"
bx s"
bx r"
bx q"
b0 p"
b0 o"
xn"
b0 m"
b10 l"
b0 k"
b0 j"
b0 i"
b10 h"
b0 g"
b0 f"
bx e"
bx d"
bx c"
1b"
b0 a"
b0 `"
bx _"
bx ^"
b0 ]"
bx \"
b0 ["
b0 Z"
b0 Y"
b0 X"
b0 W"
b0 V"
b0 U"
b0 T"
b0 S"
b0 R"
b0 Q"
b0 P"
b0 O"
b0 N"
b0 M"
xL"
bx K"
bx J"
bx I"
zH"
b0 G"
0F"
b0 E"
b0 D"
bx C"
b0 B"
bx A"
b0 @"
b0 ?"
b0 >"
b0 ="
b0 <"
b0 ;"
bx :"
bx 9"
bx 8"
bx 7"
bx 6"
bx 5"
bx 4"
b0 3"
b111111111100000000000010010011 2"
bx 1"
bx 0"
bx /"
b0 ."
b0 -"
bx ,"
bx +"
b0 *"
bx )"
0("
x'"
0&"
x%"
bx $"
bx #"
b0 ""
0!"
x~
x}
bx |
b10 {
bx z
bx y
bx x
b0 w
bx v
xu
1t
xs
xr
xq
0p
b0 o
0n
b0 m
b0 l
bx k
b0 j
bx i
b0 h
b0 g
b0 f
bx e
bx d
bx c
1b
xa
x`
1_
x^
x]
0\
b0 [
bx Z
bx Y
b0 X
b0 W
b0 V
b0 U
bx T
bx S
b0 R
b0 Q
bx P
bx O
b0 N
bx M
bx L
xK
xJ
xI
xH
b111111111100000000000010010011 G
bx F
b0 E
bx D
b0 C
b0 B
b0 A
bx @
b0 ?
b0 >
b0 =
bx <
b0 ;
b0 :
b0 9
bx 8
bx 7
16
b0 5
b0 4
b0 3
b0 2
b0 1
bx 0
bx /
b111111111100000000000010010011 .
x-
z,
z+
z*
b0 )
1(
1'
b0 &
bz %
z$
z#
bz "
z!
$end
#5000
0(
#50000
1e#
1n"
b1111111111 S
b1111111111 y"
b1111111111 <#
1u
b0 {
b0 h"
b0 l"
1&"
0K
b0 +"
b0 C"
b0 D#
b1 [
b1 G"
b1 .#
bx E"
b0 7
b0 u"
b0 /#
b111111111100000000000010010011 L
b111111111100000000000010010011 6"
b111111111100000000000010010011 x"
b1111 M
b1111 5"
b1111 d"
b0 O
b0 4"
b0 c"
b0 N#
b1 D
b1 8"
b1 I"
b0 i
b0 @#
b0 U#
b11111 <
b11111 :"
b11111 K"
b11111 _"
b11111 X#
b0 k
b0 >#
b0 T#
b0 @
b0 9"
b0 J"
b0 ^"
b0 W#
b10011 F
b10011 7"
b10011 \"
b10011 e"
b10011 P#
1b#
0~
b10 z
b10 r"
b10 ,#
1^
b0 v
b0 s"
b0 e
b0 t"
b0 -#
0%"
0'"
b0 ,"
b0 A"
b0 q"
zL"
bx C
bx M"
bx P"
bx ]"
bx ;
bx O"
bx R"
bx ~"
bx ?
bx N"
bx Q"
bx }"
bx R
bx ="
bx =#
bx J#
bx j
bx (#
bx ?#
bx h
bx '#
bx A#
bx E
bx ;"
bx `"
bx Q#
bx N
bx <"
bx O#
bx 3
bx 4
bx v#
bx *"
bx ##
bx 6#
bx E#
bx g#
b0 Z
b0 !#
b0 3#
b0 k#
1a
b0 P
b0 Y#
b0 r#
b0 T
b0 \#
b0 o#
b0 )"
b0 &#
b0 ]#
b0 m#
bx ""
bx M#
bx R#
1w#
b0 v"
0'
#100000
b0 #"
b0 1"
b0 z"
b0 L#
b100000010000000100011 .
b100000010000000100011 G
b100000010000000100011 2"
b100000010000000100011 t#
b1 s#
b0 /
b0 |
b0 0"
b0 z#
b100 1
b100 o
b100 7#
b100 u#
b100 X
b100 3"
b100 8#
b100 :#
b100 `#
bx +"
bx C"
bx D#
bx D"
bx B"
0w#
bx l
bx >"
bx +#
bx H#
bx m
bx ?"
bx *#
b100 9#
b1 )
1'
#150000
1s
b0 S
b0 y"
b0 <#
b1111111111 D"
1!"
b10 w
b10 i"
b10 m"
b10 w"
b0 ""
b0 M#
b0 R#
bx )"
bx &#
bx ]#
bx m#
b0 Y
b0 $#
b0 Z#
b0 q#
1`
b0 0
b0 8
b0 4#
b0 y#
0-
1]
b1 Z
b1 !#
b1 3#
b1 k#
0}
b10 y
b10 /"
b10 1#
b10 h#
b0 d
b0 "#
b0 2#
b0 j#
bx B
bx S"
bx V"
bx |"
bx :
bx U"
bx X"
bx >
bx T"
bx W"
bx Q
bx K#
bx l#
bx 2
bx 5
bx x#
bx g
bx I#
b0 N
b0 <"
b0 O#
b10011 E
b10011 ;"
b10011 `"
b10011 Q#
b0 h
b0 '#
b0 A#
b0 j
b0 (#
b0 ?#
b1111111111 R
b1111111111 ="
b1111111111 =#
b1111111111 J#
1f#
b1 C
b1 M"
b1 P"
b1 ]"
b11111 ;
b11111 O"
b11111 R"
b11111 ~"
b0 ?
b0 N"
b0 Q"
b0 }"
0J
b0 z
b0 r"
b0 ,#
1%"
b100 W
b100 a"
b100 f"
b100 p"
b100 5#
b100 ;#
b100 B#
b100 c#
b100000010000000100011 L
b100000010000000100011 6"
b100000010000000100011 x"
b0 M
b0 5"
b0 d"
b10 O
b10 4"
b10 c"
b10 N#
b0 D
b0 8"
b0 I"
b1 <
b1 :"
b1 K"
b1 _"
b1 X#
b100011 F
b100011 7"
b100011 \"
b100011 e"
b100011 P#
1w#
0'
#200000
b11111111100001000000100010011 .
b11111111100001000000100010011 G
b11111111100001000000100010011 2"
b11111111100001000000100010011 t#
b10 s#
b1000 1
b1000 o
b1000 7#
b1000 u#
b1000 X
b1000 3"
b1000 8#
b1000 :#
b1000 `#
b1111111111 +"
b1111111111 C"
b1111111111 D#
b0 [
b0 G"
b0 .#
b0 E"
b0 B"
0w#
b1000 9#
b0 l
b0 >"
b0 +#
b0 H#
b0 m
b0 ?"
b0 *#
b10 )
1'
#250000
b111111111 S
b111111111 y"
b111111111 <#
0!"
b0 w
b0 i"
b0 m"
b0 w"
b0 +"
b0 C"
b0 D#
b0 D"
0b
b1111 7
b1111 u"
b1111 /#
b11111111100001000000100010011 L
b11111111100001000000100010011 6"
b11111111100001000000100010011 x"
b111 M
b111 5"
b111 d"
b0 O
b0 4"
b0 c"
b0 N#
b10 D
b10 8"
b10 I"
b11111 <
b11111 :"
b11111 K"
b11111 _"
b11111 X#
b1 @
b1 9"
b1 J"
b1 ^"
b1 W#
b10011 F
b10011 7"
b10011 \"
b10011 e"
b10011 P#
b1000 W
b1000 a"
b1000 f"
b1000 p"
b1000 5#
b1000 ;#
b1000 B#
b1000 c#
1~
b10 v
b10 s"
b0 C
b0 M"
b0 P"
b0 ]"
b1 ;
b1 O"
b1 R"
b1 ~"
b0 R
b0 ="
b0 =#
b0 J#
b100 V
b100 @"
b100 )#
b100 0#
b100 C#
b100 F#
b100011 E
b100011 ;"
b100011 `"
b100011 Q#
b10 N
b10 <"
b10 O#
b1111111111 3
b1111111111 4
b1111111111 v#
b1111111111 *"
b1111111111 ##
b1111111111 6#
b1111111111 E#
b1111111111 g#
b0 2
b0 5
b0 x#
b0 g
b0 I#
b1111111111 Q
b1111111111 K#
b1111111111 l#
1r
b1 B
b1 S"
b1 V"
b1 |"
b11111 :
b11111 U"
b11111 X"
b0 >
b0 T"
b0 W"
b0 Z
b0 !#
b0 3#
b0 k#
0I
b0 y
b0 /"
b0 1#
b0 h#
bx P
bx Y#
bx r#
b1 Y
b1 $#
b1 Z#
b1 q#
b10 x
b10 n#
b0 c
b0 %#
b0 [#
b0 p#
bx A
bx Y"
bx {"
bx V#
bx 9
bx ["
bx =
bx Z"
1w#
b1111 v"
0'
#300000
bx #"
bx 1"
bx z"
bx L#
b1000000010001000100011 .
b1000000010001000100011 G
b1000000010001000100011 2"
b1000000010001000100011 t#
b11 s#
bx /
bx |
bx 0"
bx z#
b1100 1
b1100 o
b1100 7#
b1100 u#
b1100 X
b1100 3"
b1100 8#
b1100 :#
b1100 `#
b1 [
b1 G"
b1 .#
b1111111111 E"
0w#
b1111111111 l
b1111111111 >"
b1111111111 +#
b1111111111 H#
b1100 9#
b11 )
1'
#350000
b100 S
b100 y"
b100 <#
1b
b111111111 +"
b111111111 C"
b111111111 D#
b111111111 D"
1!"
b10 w
b10 i"
b10 m"
b10 w"
b0 7
b0 u"
b0 /#
bx ""
bx M#
bx R#
1q
b1 A
b1 Y"
b1 {"
b1 V#
b11111 9
b11111 ["
b0 =
b0 Z"
b1111111111 P
b1111111111 Y#
b1111111111 r#
b1111111111 )"
b1111111111 &#
b1111111111 ]#
b1111111111 m#
b0 Y
b0 $#
b0 Z#
b0 q#
0H
b0 x
b0 n#
b1111 0
b1111 8
b1111 4#
b1111 y#
1-
b1 Z
b1 !#
b1 3#
b1 k#
1}
0a
b0 B
b0 S"
b0 V"
b0 |"
b1 :
b1 U"
b1 X"
b0 Q
b0 K#
b0 l#
b1111111111 2
b1111111111 5
b1111111111 x#
b1111111111 g
b1111111111 I#
b100 U
b100 ."
b100 G#
b100 i#
b0 3
b0 4
b0 v#
b0 *"
b0 ##
b0 6#
b0 E#
b0 g#
b0 N
b0 <"
b0 O#
b10011 E
b10011 ;"
b10011 `"
b10011 Q#
b1000 V
b1000 @"
b1000 )#
b1000 0#
b1000 C#
b1000 F#
b111111111 R
b111111111 ="
b111111111 =#
b111111111 J#
b10 C
b10 M"
b10 P"
b10 ]"
b11111 ;
b11111 O"
b11111 R"
b11111 ~"
b1 ?
b1 N"
b1 Q"
b1 }"
0~
b0 v
b0 s"
b1100 W
b1100 a"
b1100 f"
b1100 p"
b1100 5#
b1100 ;#
b1100 B#
b1100 c#
b1000000010001000100011 L
b1000000010001000100011 6"
b1000000010001000100011 x"
b0 M
b0 5"
b0 d"
b10 O
b10 4"
b10 c"
b10 N#
b100 D
b100 8"
b100 I"
b10 <
b10 :"
b10 K"
b10 _"
b10 X#
b0 @
b0 9"
b0 J"
b0 ^"
b0 W#
b100011 F
b100011 7"
b100011 \"
b100011 e"
b100011 P#
1w#
b0 v"
0'
#400000
b10000110000011 .
b10000110000011 G
b10000110000011 2"
b10000110000011 t#
b100 s#
b10000 1
b10000 o
b10000 7#
b10000 u#
b10000 X
b10000 3"
b10000 8#
b10000 :#
b10000 `#
b10111111110 +"
b10111111110 C"
b10111111110 D#
b10 [
b10 G"
b10 .#
b0 E"
b1111111111 B"
0w#
b10000 9#
b0 l
b0 >"
b0 +#
b0 H#
b1111111111 m
b1111111111 ?"
b1111111111 *#
b1111111111 $"
b1111111111 ^#
b100 )
1'
#450000
b0 S
b0 y"
b0 <#
0!"
b0 w
b0 i"
b0 m"
b0 w"
b1 f
b1 j"
b1 o"
b10000000011 +"
b10000000011 C"
b10000000011 D#
b100 D"
0b
b1111 7
b1111 u"
b1111 /#
b10000110000011 L
b10000110000011 6"
b10000110000011 x"
b11 D
b11 8"
b11 I"
b0 <
b0 :"
b0 K"
b0 _"
b0 X#
b11 F
b11 7"
b11 \"
b11 e"
b11 P#
b10000 W
b10000 a"
b10000 f"
b10000 p"
b10000 5#
b10000 ;#
b10000 B#
b10000 c#
1~
b10 v
b10 s"
b100 C
b100 M"
b100 P"
b100 ]"
b10 ;
b10 O"
b10 R"
b10 ~"
b0 ?
b0 N"
b0 Q"
b0 }"
b100 R
b100 ="
b100 =#
b100 J#
b1100 V
b1100 @"
b1100 )#
b1100 0#
b1100 C#
b1100 F#
b100011 E
b100011 ;"
b100011 `"
b100011 Q#
b10 N
b10 <"
b10 O#
b10111111110 3
b10111111110 4
b10111111110 v#
b10111111110 *"
b10111111110 ##
b10111111110 6#
b10111111110 E#
b10111111110 g#
b1000 U
b1000 ."
b1000 G#
b1000 i#
b0 2
b0 5
b0 x#
b0 g
b0 I#
b111111111 Q
b111111111 K#
b111111111 l#
b10 B
b10 S"
b10 V"
b10 |"
b11111 :
b11111 U"
b11111 X"
b1 >
b1 T"
b1 W"
b0 0
b0 8
b0 4#
b0 y#
0-
b10 Z
b10 !#
b10 3#
b10 k#
0}
1a
b0 P
b0 Y#
b0 r#
b100 T
b100 \#
b100 o#
b0 )"
b0 &#
b0 ]#
b0 m#
b1 Y
b1 $#
b1 Z#
b1 q#
0`
b0 A
b0 Y"
b0 {"
b0 V#
b1 9
b1 ["
1w#
b1111 v"
0'
#500000
b10000000010001000000011 .
b10000000010001000000011 G
b10000000010001000000011 2"
b10000000010001000000011 t#
b101 s#
b10100 1
b10100 o
b10100 7#
b10100 u#
b10100 X
b10100 3"
b10100 8#
b10100 :#
b10100 `#
b100 +"
b100 C"
b100 D#
b1 [
b1 G"
b1 .#
b10111111110 E"
b0 B"
0w#
b10111111110 l
b10111111110 >"
b10111111110 +#
b10111111110 H#
b0 m
b0 ?"
b0 *#
b10100 9#
b101 )
1'
